<?xml version="1.0" encoding="UTF-8"?>
<svg width="6px" height="11px" viewBox="0 0 6 11" version="1.1" xmlns="http://www.w3.org/2000/svg" xmlns:xlink="http://www.w3.org/1999/xlink">
    <!-- Generator: Sketch 55.2 (78181) - https://sketchapp.com -->
    <title>Combined Shape</title>
    <desc>Created with Sketch.</desc>
    <g id="Symbols" stroke="none" stroke-width="1" fill="none" fill-rule="evenodd">
        <g id="lv2/list/notification" transform="translate(-348.000000, -30.000000)" fill="#0D0B16">
            <path d="M345.990188,32.9901876 L345.990188,38.9901876 C345.990188,39.3583774 345.691711,39.6568542 345.323521,39.6568542 C344.955331,39.6568542 344.656854,39.3583774 344.656854,38.9901876 L344.656854,32.3235209 C344.656854,31.9553311 344.955331,31.6568542 345.323521,31.6568542 L351.990188,31.6568542 C352.358377,31.6568542 352.656854,31.9553311 352.656854,32.3235209 C352.656854,32.6917107 352.358377,32.9901876 351.990188,32.9901876 L345.990188,32.9901876 Z" id="Combined-Shape" transform="translate(348.656854, 35.656854) scale(-1, 1) rotate(-45.000000) translate(-348.656854, -35.656854) "></path>
        </g>
    </g>
</svg>