<?xml version="1.0" encoding="UTF-8"?>
<svg width="16px" height="4px" viewBox="0 0 16 4" version="1.1" xmlns="http://www.w3.org/2000/svg" xmlns:xlink="http://www.w3.org/1999/xlink">
    <!-- Generator: Sketch 55.2 (78181) - https://sketchapp.com -->
    <title>Stacked Group</title>
    <desc>Created with Sketch.</desc>
    <g id="Symbols" stroke="none" stroke-width="1" fill="none" fill-rule="evenodd">
        <g id="lv2/pic/list_message" transform="translate(-340.000000, -108.000000)" stroke="#0D0B16">
            <g id="Stacked-Group" transform="translate(341.000000, 109.000000)">
                <circle id="Oval" cx="1" cy="1" r="1"></circle>
                <circle id="Oval-Copy-5" cx="7" cy="1" r="1"></circle>
                <circle id="Oval-Copy-6" cx="13" cy="1" r="1"></circle>
            </g>
        </g>
    </g>
</svg>