<svg xmlns="http://www.w3.org/2000/svg" width="18" height="18" viewBox="0 0 18 18">
  <rect width="16" height="16" x="53" y="42" fill="none" stroke="#ACABAB" rx="4" transform="translate(-52 -41)"/>
</svg>
