<?xml version="1.0" encoding="UTF-8"?>
<svg width="42px" height="33px" viewBox="0 0 42 33" version="1.1" xmlns="http://www.w3.org/2000/svg" xmlns:xlink="http://www.w3.org/1999/xlink">
    <!-- Generator: Sketch 55.2 (78181) - https://sketchapp.com -->
    <title>Shape</title>
    <desc>Created with Sketch.</desc>
    <g id="Page-1" stroke="none" stroke-width="1" fill="none" fill-rule="evenodd">
        <g id="マイページ(男性)" transform="translate(-39.000000, -469.000000)" fill-rule="nonzero" stroke="#D5A237">
            <g id="Group-4" transform="translate(20.000000, 438.000000)">
                <path d="M56.6666667,32 L23.3333333,32 C21.4930556,32 20,33.4930556 20,35.3333333 L20,59.7777778 C20,61.6180556 21.4930556,63.1111111 23.3333333,63.1111111 L56.6666667,63.1111111 C58.5069444,63.1111111 60,61.6180556 60,59.7777778 L60,35.3333333 C60,33.4930556 58.5069444,32 56.6666667,32 Z M32.2222222,38.6666667 C34.6736111,38.6666667 36.6666667,40.6597222 36.6666667,43.1111111 C36.6666667,45.5625 34.6736111,47.5555556 32.2222222,47.5555556 C29.7708333,47.5555556 27.7777778,45.5625 27.7777778,43.1111111 C27.7777778,40.6597222 29.7708333,38.6666667 32.2222222,38.6666667 Z M40,55.1111111 C40,55.8472222 39.3055556,56.4444444 38.4444444,56.4444444 L26,56.4444444 C25.1388889,56.4444444 24.4444444,55.8472222 24.4444444,55.1111111 L24.4444444,53.7777778 C24.4444444,51.5694444 26.5347222,49.7777778 29.1111111,49.7777778 L29.4583333,49.7777778 C30.3125,50.1319444 31.2430556,50.3333333 32.2222222,50.3333333 C33.2013889,50.3333333 34.1388889,50.1319444 34.9861111,49.7777778 L35.3333333,49.7777778 C37.9097222,49.7777778 40,51.5694444 40,53.7777778 L40,55.1111111 Z M55.5555556,51.4444444 C55.5555556,51.75 55.3055556,52 55,52 L45,52 C44.6944444,52 44.4444444,51.75 44.4444444,51.4444444 L44.4444444,50.3333333 C44.4444444,50.0277778 44.6944444,49.7777778 45,49.7777778 L55,49.7777778 C55.3055556,49.7777778 55.5555556,50.0277778 55.5555556,50.3333333 L55.5555556,51.4444444 Z M55.5555556,47 C55.5555556,47.3055556 55.3055556,47.5555556 55,47.5555556 L45,47.5555556 C44.6944444,47.5555556 44.4444444,47.3055556 44.4444444,47 L44.4444444,45.8888889 C44.4444444,45.5833333 44.6944444,45.3333333 45,45.3333333 L55,45.3333333 C55.3055556,45.3333333 55.5555556,45.5833333 55.5555556,45.8888889 L55.5555556,47 Z M55.5555556,42.5555556 C55.5555556,42.8611111 55.3055556,43.1111111 55,43.1111111 L45,43.1111111 C44.6944444,43.1111111 44.4444444,42.8611111 44.4444444,42.5555556 L44.4444444,41.4444444 C44.4444444,41.1388889 44.6944444,40.8888889 45,40.8888889 L55,40.8888889 C55.3055556,40.8888889 55.5555556,41.1388889 55.5555556,41.4444444 L55.5555556,42.5555556 Z" id="Shape"></path>
            </g>
        </g>
    </g>
</svg>