<?xml version="1.0" encoding="UTF-8"?>
<svg width="18px" height="16px" viewBox="0 0 18 16" version="1.1" xmlns="http://www.w3.org/2000/svg" xmlns:xlink="http://www.w3.org/1999/xlink">
    <!-- Generator: Sketch 55.2 (78181) - https://sketchapp.com -->
    <title>Path</title>
    <desc>Created with Sketch.</desc>
    <g id="Symbols" stroke="none" stroke-width="1" fill="none" fill-rule="evenodd">
        <g id="lv2/bar/tab_like" transform="translate(-70.000000, 0.000000)" fill-rule="nonzero" stroke="#D5A237">
            <g id="Group-2" transform="translate(71.000000, 0.000000)">
                <path d="M14.7617168,1.97411739 C13.0135733,0.5147691 10.3838699,0.760416851 8.77927837,2.38226217 L8.15083994,3.01662556 L7.52240151,2.38226217 C5.92100003,0.760416851 3.31792511,0.497921655 1.56978166,1.95726995 C-0.433565215,3.63223929 -0.509018069,6.65528172 1.28378598,8.47087349 L7.42670023,14.6976618 C7.82545558,15.1007794 8.47303427,15.1007794 8.87178962,14.6976618 L15.074341,8.47087349 C16.8703351,6.65528172 16.7650637,3.64908674 14.7617168,1.97411739 Z" id="Path"></path>
            </g>
        </g>
    </g>
</svg>