<?xml version="1.0" encoding="UTF-8"?>
<svg width="33px" height="30px" viewBox="0 0 33 30" version="1.1" xmlns="http://www.w3.org/2000/svg" xmlns:xlink="http://www.w3.org/1999/xlink">
    <!-- Generator: Sketch 55.2 (78181) - https://sketchapp.com -->
    <title>Group 3</title>
    <desc>Created with Sketch.</desc>
    <g id="Page-1" stroke="none" stroke-width="1" fill="none" fill-rule="evenodd">
        <g id="ステータス設定（無料/有料会員）" transform="translate(-45.000000, -556.000000)">
            <g id="Group-3" transform="translate(46.000000, 557.000000)">
                <g id="Group" transform="translate(-0.000000, -0.000000)">
                    <rect id="Rectangle" stroke="#0D0B16" x="0" y="0" width="22.5882353" height="28.4313725" rx="1"></rect>
                    <rect id="Rectangle" fill="#0D0B16" x="4.23529412" y="7.10784314" width="14.1176471" height="1.42156863"></rect>
                    <rect id="Rectangle-Copy" fill="#0D0B16" x="4.23529412" y="12.7941176" width="5.64705882" height="1.42156863"></rect>
                    <rect id="Rectangle-Copy-2" fill="#0D0B16" x="4.23529412" y="18.4803922" width="11.2941176" height="1.42156863"></rect>
                </g>
                <path d="M31.6111952,10.5774953 L30.3399967,11.8575216 C30.2103951,11.9880232 30.0008266,11.9880232 29.871225,11.8575216 L26.8104216,8.77546261 C26.68082,8.64496101 26.68082,8.43393715 26.8104216,8.30343555 L28.0816201,7.02340925 C28.597269,6.50417949 29.4355431,6.50417949 29.9539494,7.02340925 L31.6111952,8.69216371 C32.1296016,9.21139347 32.1296016,10.0554889 31.6111952,10.5774953 Z M25.7184593,9.40298092 L18.4773154,16.6944106 L17.8927295,20.0680157 C17.8127625,20.523383 18.2070823,20.9176644 18.6593091,20.8399188 L22.0096479,20.2484966 L29.2507919,12.957067 C29.3803935,12.8265654 29.3803935,12.6155415 29.2507919,12.4850399 L26.1899885,9.40298092 C26.0576294,9.27247933 25.8480609,9.27247933 25.7184593,9.40298092 Z M21.3037329,16.0696689 C21.1520715,15.9169543 21.1520715,15.6726108 21.3037329,15.5198962 L25.550253,11.2438864 C25.7019144,11.0911718 25.9445727,11.0911718 26.0962341,11.2438864 C26.2478956,11.3966011 26.2478956,11.6409445 26.0962341,11.7936591 L21.8497141,16.0696689 C21.6980526,16.2223835 21.4553944,16.2223835 21.3037329,16.0696689 L21.3037329,16.0696689 Z M20.3082824,18.4048145 L21.6318731,18.4048145 L21.6318731,19.4127311 L19.8532981,19.7264902 L18.9957217,18.8629584 L19.307317,17.0720322 L20.3082824,17.0720322 L20.3082824,18.4048145 Z" id="Shape" fill="#0D0B16" fill-rule="nonzero"></path>
            </g>
        </g>
    </g>
</svg>