<?xml version="1.0" encoding="UTF-8"?>
<svg width="35px" height="27px" viewBox="0 0 35 27" version="1.1" xmlns="http://www.w3.org/2000/svg" xmlns:xlink="http://www.w3.org/1999/xlink">
    <!-- Generator: Sketch 55.2 (78181) - https://sketchapp.com -->
    <title>Group</title>
    <desc>Created with Sketch.</desc>
    <g id="Page-1" stroke="none" stroke-width="1" fill="none" fill-rule="evenodd">
        <g id="ステータス設定（無料/有料会員）" transform="translate(-44.000000, -467.000000)" stroke="#0D0B16">
            <g id="Group" transform="translate(45.000000, 468.000000)">
                <rect id="Rectangle" x="0" y="0" width="33" height="25" rx="1"></rect>
                <path d="M0,5.83333333 C9.9,13.0555556 15.4,16.6666667 16.5,16.6666667 C17.6,16.6666667 23.1,13.0555556 33,5.83333333" id="Path"></path>
                <path d="M9.9,12.5 L-4.4408921e-16,20.8333333" id="Path-2"></path>
                <path d="M33,12.5 L23.1,20.8333333" id="Path-2" transform="translate(28.050000, 16.666667) scale(-1, 1) translate(-28.050000, -16.666667) "></path>
            </g>
        </g>
    </g>
</svg>