<?xml version="1.0" encoding="UTF-8"?>
<svg width="32px" height="29px" viewBox="0 0 32 29" version="1.1" xmlns="http://www.w3.org/2000/svg" xmlns:xlink="http://www.w3.org/1999/xlink">
    <!-- Generator: Sketch 55.2 (78181) - https://sketchapp.com -->
    <title>Shape</title>
    <desc>Created with Sketch.</desc>
    <g id="Page-1" stroke="none" stroke-width="1" fill="none" fill-rule="evenodd">
        <g id="ステータス設定（無料/有料会員）" transform="translate(-43.000000, -901.000000)" fill-rule="nonzero" stroke="#0D0B16">
            <path d="M74,914.65625 C74,913.410137 73.3255208,912.333828 72.3333333,911.749531 L72.3333333,903.688027 C72.3333333,903.226602 71.9697917,902 70.6666667,902 C70.2958333,902 69.9276042,902.125508 69.6260417,902.370195 L65.1973958,905.957715 C62.9729167,907.758066 60.1802083,908.75 57.3333333,908.75 L47.3333333,908.75 C45.4921875,908.75 44,910.26084 44,912.125 L44,917.1875 C44,919.05166 45.4921875,920.5625 47.3333333,920.5625 L49.0885417,920.5625 C49.0161458,921.115156 48.975,921.677305 48.975,922.25 C48.975,924.347246 49.4572917,926.329004 50.30625,928.100352 C50.5765625,928.664082 51.1666667,929 51.7854167,929 L55.6541667,929 C57.0109375,929 57.8255208,927.426406 57.003125,926.33375 C56.1489583,925.198906 55.6411458,923.783516 55.6411458,922.25 C55.6411458,921.664121 55.7255208,921.100918 55.8708333,920.5625 L57.3333333,920.5625 C60.1802083,920.5625 62.9729167,921.554434 65.196875,923.354785 L69.6255208,926.942305 C69.9208925,927.181624 70.2878437,927.312164 70.6661458,927.3125 C71.9640625,927.3125 72.3328125,926.111211 72.3328125,925.625 L72.3328125,917.563496 C73.3255208,916.978672 74,915.902363 74,914.65625 Z M69,922.113945 L67.2786458,920.719648 C64.4661458,918.441523 60.9333333,917.1875 57.3333333,917.1875 L57.3333333,912.125 C60.9333333,912.125 64.4661458,910.870977 67.2786458,908.592852 L69,907.198555 L69,922.113945 Z" id="Shape"></path>
        </g>
    </g>
</svg>