<?xml version="1.0" encoding="UTF-8"?>
<svg width="18px" height="18px" viewBox="0 0 18 18" version="1.1" xmlns="http://www.w3.org/2000/svg" xmlns:xlink="http://www.w3.org/1999/xlink">
    <!-- Generator: Sketch 55.2 (78181) - https://sketchapp.com -->
    <title>Group Copy</title>
    <desc>Created with Sketch.</desc>
    <g id="Page-1" stroke="none" stroke-width="1" fill="none" fill-rule="evenodd">
        <g id="ページネーション" transform="translate(-317.000000, -739.000000)" fill="#ACABAB">
            <g id="Group-2" transform="translate(40.000000, 726.000000)">
                <g id="Group-Copy" transform="translate(282.000000, 22.000000) scale(-1, 1) translate(-282.000000, -22.000000) translate(269.000000, 13.000000)">
                    <path d="M13,5 L13,14 C13,14.5522847 12.5522847,15 12,15 C11.4477153,15 11,14.5522847 11,14 L11,4 C11,3.44771525 11.4477153,3 12,3 L22,3 C22.5522847,3 23,3.44771525 23,4 C23,4.55228475 22.5522847,5 22,5 L13,5 Z" id="Combined-Shape-Copy" transform="translate(17.000000, 9.000000) rotate(-45.000000) translate(-17.000000, -9.000000) "></path>
                    <path d="M5,5 L5,14 C5,14.5522847 4.55228475,15 4,15 C3.44771525,15 3,14.5522847 3,14 L3,4 C3,3.44771525 3.44771525,3 4,3 L14,3 C14.5522847,3 15,3.44771525 15,4 C15,4.55228475 14.5522847,5 14,5 L5,5 Z" id="Combined-Shape-Copy-2" transform="translate(9.000000, 9.000000) rotate(-45.000000) translate(-9.000000, -9.000000) "></path>
                </g>
            </g>
        </g>
    </g>
</svg>