<?xml version="1.0" encoding="UTF-8"?>
<svg width="18px" height="18px" viewBox="0 0 18 18" version="1.1" xmlns="http://www.w3.org/2000/svg" xmlns:xlink="http://www.w3.org/1999/xlink">
    <!-- Generator: Sketch 55.2 (78181) - https://sketchapp.com -->
    <title>Shape</title>
    <desc>Created with Sketch.</desc>
    <g id="Symbols" stroke="none" stroke-width="1" fill="none" fill-rule="evenodd">
        <g id="lv2/btn/recruitment" transform="translate(-109.000000, -48.000000)" fill-rule="nonzero" stroke="#D5A237">
            <g id="Group-4">
                <g id="Group" transform="translate(110.000000, 49.000000)">
                    <path d="M15.5584541,4.43822978 L14.1178458,5.87883808 C13.9709725,6.02571138 13.7334753,6.02571138 13.586602,5.87883808 L10.1178922,2.4101283 C9.9710189,2.26325501 9.9710189,2.02575776 10.1178922,1.87888446 L11.5585005,0.438276168 C12.1428687,-0.146092056 13.0928577,-0.146092056 13.6803509,0.438276168 L15.5584541,2.31637939 C16.1459473,2.90074761 16.1459473,3.8507366 15.5584541,4.43822978 Z M8.88040655,3.11637011 L0.674251707,11.322525 L0.0117593888,15.1193559 C-0.0788645603,15.63185 0.368005258,16.0755948 0.880499315,15.9880959 L4.67733029,15.3224786 L12.8834851,7.11632373 C13.0303584,6.96945043 13.0303584,6.73195319 12.8834851,6.58507989 L9.41477535,3.11637011 C9.26477709,2.96949682 9.02727984,2.96949682 8.88040655,3.11637011 Z M3.87733956,10.6194081 C3.70546656,10.4475351 3.70546656,10.1725383 3.87733956,10.0006653 L8.68978376,5.18822109 C8.86165677,5.01634808 9.13665358,5.01634808 9.30852658,5.18822109 C9.48039959,5.36009409 9.48039959,5.63509091 9.30852658,5.80696391 L4.49608239,10.6194081 C4.32420938,10.7912811 4.04921257,10.7912811 3.87733956,10.6194081 L3.87733956,10.6194081 Z M2.74922765,13.2475026 L4.24921025,13.2475026 L4.24921025,14.3818645 L2.23360862,14.7349854 L1.26174489,13.7631217 L1.6148658,11.74752 L2.74922765,11.74752 L2.74922765,13.2475026 Z" id="Shape"></path>
                </g>
            </g>
        </g>
    </g>
</svg>