<?xml version="1.0" encoding="UTF-8"?>
<svg width="50px" height="50px" viewBox="0 0 50 50" version="1.1" xmlns="http://www.w3.org/2000/svg" xmlns:xlink="http://www.w3.org/1999/xlink">
    <!-- Generator: Sketch 55.2 (78181) - https://sketchapp.com -->
    <title>Group 2</title>
    <desc>Created with Sketch.</desc>
    <g id="Page-1" stroke="none" stroke-width="1" fill="none" fill-rule="evenodd">
        <g id="プラン変更モーダル_有料会員へ" transform="translate(-45.000000, -433.000000)" stroke="#D5A237">
            <g id="Group-19" transform="translate(-0.000000, 0.000000)">
                <g id="Group-2" transform="translate(46.000000, 434.000000)">
                    <circle id="Oval" cx="24" cy="24" r="24"></circle>
                    <rect id="Rectangle" x="14" y="17" width="20" height="15" rx="1"></rect>
                    <path d="M14,20.5 C20,24.8333333 23.3333333,27 24,27 C24.6666667,27 28,24.8333333 34,20.5" id="Path"></path>
                    <path d="M20,24.5 L14,29.5" id="Path-2"></path>
                    <path d="M34,24.5 L28,29.5" id="Path-2" transform="translate(31.000000, 27.000000) scale(-1, 1) translate(-31.000000, -27.000000) "></path>
                </g>
            </g>
        </g>
    </g>
</svg>