<?xml version="1.0" encoding="UTF-8"?>
<svg width="18px" height="22px" viewBox="0 0 18 22" version="1.1" xmlns="http://www.w3.org/2000/svg" xmlns:xlink="http://www.w3.org/1999/xlink">
    <!-- Generator: Sketch 55.2 (78181) - https://sketchapp.com -->
    <title>Group</title>
    <desc>Created with Sketch.</desc>
    <g id="Symbols" stroke="none" stroke-width="1" fill="none" fill-rule="evenodd">
        <g id="lv1/icon/tab_タイムライン-copy" transform="translate(-21.000000, -9.000000)">
            <g id="Group" transform="translate(22.000000, 10.000000)">
                <rect id="Rectangle" stroke="#D6A328" x="0" y="0" width="16" height="20" rx="1"></rect>
                <rect id="Rectangle" fill="#D6A328" x="3" y="5" width="10" height="1"></rect>
                <rect id="Rectangle-Copy" fill="#D6A328" x="3" y="9" width="4" height="1"></rect>
                <rect id="Rectangle-Copy-2" fill="#D6A328" x="3" y="13" width="8" height="1"></rect>
            </g>
        </g>
    </g>
</svg>