<?xml version="1.0" encoding="UTF-8"?>
<svg width="32px" height="29px" viewBox="0 0 32 29" version="1.1" xmlns="http://www.w3.org/2000/svg" xmlns:xlink="http://www.w3.org/1999/xlink">
    <!-- Generator: Sketch 55.2 (78181) - https://sketchapp.com -->
    <title>Group 2</title>
    <desc>Created with Sketch.</desc>
    <g id="Page-1" stroke="none" stroke-width="1" fill="none" fill-rule="evenodd">
        <g id="さがす" transform="translate(-323.000000, -15.000000)">
            <g id="Group-2" transform="translate(323.000000, 12.000000)">
                <g id="Group-3" transform="translate(4.000000, 0.000000)">
                    <g id="Group">
                        <circle id="Oval" stroke="#D5A237" transform="translate(12.000000, 12.000000) rotate(-315.000000) translate(-12.000000, -12.000000) " cx="12" cy="12" r="8"></circle>
                        <rect id="Rectangle" fill="#D5A237" transform="translate(19.146447, 20.232233) rotate(-315.000000) translate(-19.146447, -20.232233) " x="16.1464466" y="19.732233" width="6" height="1"></rect>
                    </g>
                    <path d="M9.2,11.8 L15.4,11.8 C15.7313708,11.8 16,12.0686292 16,12.4 C16,12.7313708 15.7313708,13 15.4,13 L8.6,13 C8.43431458,13 8.28431458,12.9328427 8.17573593,12.8242641 C8.06715729,12.7156854 8,12.5656854 8,12.4 L8,9.6 C8,9.26862915 8.26862915,9 8.6,9 C8.93137085,9 9.2,9.26862915 9.2,9.6 L9.2,11.8 Z" id="Combined-Shape" fill="#D5A237" transform="translate(12.000000, 11.000000) rotate(-45.000000) translate(-12.000000, -11.000000) "></path>
                </g>
                <text id="絞り込み" font-family="YuGo-Bold, YuGothic" font-size="8" font-weight="bold" fill="#D5A237">
                    <tspan x="0" y="31">絞り込み</tspan>
                </text>
            </g>
        </g>
    </g>
</svg>