<?xml version="1.0" encoding="UTF-8"?>
<svg width="34px" height="16px" viewBox="0 0 34 16" version="1.1" xmlns="http://www.w3.org/2000/svg" xmlns:xlink="http://www.w3.org/1999/xlink">
    <!-- Generator: Sketch 55.2 (78181) - https://sketchapp.com -->
    <title>Group 2 Copy</title>
    <desc>Created with Sketch.</desc>
    <g id="Symbols" stroke="none" stroke-width="1" fill="none" fill-rule="evenodd">
        <g id="lv1/pic/vip" transform="translate(1.000000, 1.000000)">
            <g id="Group-2-Copy">
                <rect id="Rectangle" stroke="#FFFFFF" fill="#0D0B16" x="0" y="0" width="32" height="14" rx="7"></rect>
                <text id="VIP" font-family="Optima-BoldItalic, Optima" font-size="10" font-style="italic" font-weight="bold" line-spacing="10" fill="#FDFDFD">
                    <tspan x="8" y="11">VIP</tspan>
                </text>
            </g>
        </g>
    </g>
</svg>