<?xml version="1.0" encoding="UTF-8"?>
<svg width="13px" height="23px" viewBox="0 0 13 23" version="1.1" xmlns="http://www.w3.org/2000/svg" xmlns:xlink="http://www.w3.org/1999/xlink">
    <!-- Generator: Sketch 55.2 (78181) - https://sketchapp.com -->
    <title>Combined Shape</title>
    <desc>Created with Sketch.</desc>
    <g id="Page-1" stroke="none" stroke-width="1" fill="none" fill-rule="evenodd">
        <g id="プロフィールページ" transform="translate(-20.000000, -12.000000)" fill="#FFFFFF">
            <path d="M25.9803752,17.9803752 L25.9803752,29.9803752 C25.9803752,30.7167548 25.3834215,31.3137085 24.6470418,31.3137085 C23.9106622,31.3137085 23.3137085,30.7167548 23.3137085,29.9803752 L23.3137085,16.6470418 C23.3137085,15.9106622 23.9106622,15.3137085 24.6470418,15.3137085 L37.9803752,15.3137085 C38.7167548,15.3137085 39.3137085,15.9106622 39.3137085,16.6470418 C39.3137085,17.3834215 38.7167548,17.9803752 37.9803752,17.9803752 L25.9803752,17.9803752 Z" id="Combined-Shape" transform="translate(31.313708, 23.313708) rotate(-45.000000) translate(-31.313708, -23.313708) "></path>
        </g>
    </g>
</svg>