<?xml version="1.0" encoding="UTF-8"?>
<svg width="19px" height="20px" viewBox="0 0 19 20" version="1.1" xmlns="http://www.w3.org/2000/svg" xmlns:xlink="http://www.w3.org/1999/xlink">
    <!-- Generator: Sketch 55.2 (78181) - https://sketchapp.com -->
    <title>Group</title>
    <desc>Created with Sketch.</desc>
    <g id="Symbols" stroke="none" stroke-width="1" fill="none" fill-rule="evenodd">
        <g id="lv2/btn/search" transform="translate(-121.000000, -48.000000)">
            <g id="Group-4">
                <g id="Group-11" transform="translate(20.000000, 36.000000)">
                    <g id="Group" transform="translate(98.000000, 9.000000)">
                        <circle id="Oval" stroke="#FFFFFF" transform="translate(12.000000, 12.000000) rotate(-315.000000) translate(-12.000000, -12.000000) " cx="12" cy="12" r="8"></circle>
                        <rect id="Rectangle" fill="#FFFFFF" transform="translate(19.146447, 20.232233) rotate(-315.000000) translate(-19.146447, -20.232233) " x="16.1464466" y="19.732233" width="6" height="1"></rect>
                    </g>
                </g>
            </g>
        </g>
    </g>
</svg>